\contentsline {section}{\numberline {1}EBNF Grammar}{1}
\contentsline {section}{\numberline {2} Example Definition Files }{1}
\contentsline {subsection}{\numberline {2.1} Example 1 }{1}
\contentsline {subsection}{\numberline {2.2}Example 2}{2}
\contentsline {section}{\numberline {3}Semantics}{3}
\contentsline {section}{\numberline {4}Teamwork Planning}{4}
\contentsline {section}{\numberline {5}Error Handling}{4}
\contentsline {subsection}{\numberline {5.1}General Error Handling}{4}
\contentsline {subsection}{\numberline {5.2}Syntax Errors}{5}
\contentsline {subsection}{\numberline {5.3}Semantic Errors}{5}
\contentsline {section}{\numberline {6}Coding Standard}{6}
