\relax 
\@writefile{toc}{\contentsline {section}{\numberline {1}EBNF Grammar}{1}}
\newlabel{sec:grammar}{{1}{1}}
\@writefile{toc}{\contentsline {section}{\numberline {2} Example Definition Files }{1}}
\@writefile{toc}{\contentsline {subsection}{\numberline {2.1} Example 1 }{1}}
\@writefile{lof}{\contentsline {figure}{\numberline {1}{\ignorespaces $1^{st}$ Example Logic Circuit\relax }}{2}}
\providecommand*\caption@xref[2]{\@setref\relax\@undefined{#1}}
\newlabel{fig:example1}{{1}{2}}
\@writefile{toc}{\contentsline {subsection}{\numberline {2.2}Example 2}{2}}
\@writefile{lof}{\contentsline {figure}{\numberline {2}{\ignorespaces $2^{nd}$ Example Logic Circuit\relax }}{3}}
\newlabel{fig:example2}{{2}{3}}
\@writefile{toc}{\contentsline {section}{\numberline {3}Semantics}{3}}
\@writefile{toc}{\contentsline {section}{\numberline {4}Teamwork Planning}{4}}
\@writefile{toc}{\contentsline {section}{\numberline {5}Error Handling}{4}}
\@writefile{toc}{\contentsline {subsection}{\numberline {5.1}General Error Handling}{4}}
\@writefile{toc}{\contentsline {subsection}{\numberline {5.2}Syntax Errors}{5}}
\@writefile{lot}{\contentsline {table}{\numberline {1}{\ignorespaces Syntax Errors\relax }}{5}}
\newlabel{tab:syntaxer}{{1}{5}}
\@writefile{toc}{\contentsline {subsection}{\numberline {5.3}Semantic Errors}{5}}
\@writefile{lot}{\contentsline {table}{\numberline {2}{\ignorespaces Semantic Errors\relax }}{6}}
\newlabel{tab:semaner}{{2}{6}}
\@writefile{toc}{\contentsline {section}{\numberline {6}Coding Standard}{6}}
